{
    "type": "service_account",
    "project_id": "lomejo-225314",
    "private_key_id": "f451662fd6eba70d2530a30dbdf648eece983460",
    "private_key": "-----BEGIN PRIVATE KEY-----\nMIIEvQIBADANBgkqhkiG9w0BAQEFAASCBKcwggSjAgEAAoIBAQC0d1YzxV4wAHKy\n/mxPGZfnCcwCO63H7sJHlNZhBtsvB0D5Vhq+u/7g4yYCtJEoAcNMLyP7pWx9PWEG\nZJVokw4laDv1+fHXjYTXo7Th0ccLa1Ge9S5MT7uVCdUXvewgCr5i9thprmtfVUk5\nsCsc6HCYi03O3MLfLgJAgnzPwELs7O0ZGdhGCVY4kU8f3OzJNHZYdjB04Fy/ppbb\nANtopgBTJNYpS3ywUA4NR3A+J/hu/vVDknEd1qJ0GgA8f6beeh4ijNzr/E0e80dG\ndzceq3rTnZxPjTqzXk/lCgUhS1dtpINY2tuRsGcjm3krUz0l7IP0sPSlv/i+R0h7\nG8eyQ2LlAgMBAAECggEANxuD5r47w0O3wsHfeA4ULTh4JCxuJjHaALrJ9gn+b29z\nH1B0TU8iBzFF36ic9M8JAKAaiFMc/Gd8U9PuLedN+A1K1hOTjqOH78NtTlHdSrbk\nTzqGf0YPvXSprhzQWH5/YcAIGMlqv0tPV37cw3CVRXewdF1EYpttk55lF5mZtjgl\noyHHwAP566Yj1PQYzwsYR+lhwiyqv+iss5FlizPAsRmRSm/8uVCmxPJnVlH+l3+/\nrRS3L9Pa3a4b03odmwhfgUQjUUyJ+MRDIxJgXizVKMayc/Mscw5cBAlBSV5UAqQv\neYbOwiYKWWDkfvY7v3/54OP8FDe1/HYnSpuwXm4MFwKBgQDl6EnMLTAwNcunZSnG\n+nkUe/hUkU/ZSDfOwM52h1OeruDba2uQQEpH3GInhxs//CtJRgWJGMM7NqEhitCy\n+dSL1nzz0YbWBUu5KvxxkunnRC7O+2xfwXVYQWfCKZzWUlMcXIhyFHFBU1/HaLSN\neb4Z+ckKSVtSidGB8K0W7BWizwKBgQDI8pZHspeqwh03em8FQAaM4xpfk1PeHBYE\nOmFaIjSYudYAaJL1WyxVqJGr/1BaW2Z7wqao29cZa2VRNqGnhD8Zwz5Rok/QnWCP\nisuhdYIfsFx8xONkFcmjiHkS16fInu0PcNp9YaGdO/U81JOwVbRZC5G6z3kElQZu\nQoDRLL1cCwKBgDpichNCyoEDuFMrUp+wTf1QujCnslJoj5uWxRe+qBKdMIcoUWmR\nmguDwP1uxxHJtShnetJlEndAGU1OVk+NOFfGwXadmBNTxvYgH3msKHBNlWGE4fGz\nTFx8R6A8NxMKVwbVzOTDojtHtAQM6AUhjJBGKbLODD36t9S6zQoMLDZrAoGAI65X\nmvGOVsbTE0fNMNx2jUvCIhhx+u13x1ZqdOu/9SKCal4nQiPnUmp1O1pBdVnnb7BX\nkYI/xoa4XdxahflIjxWJGku86mkXfUWC9O99pIzXT1xSmDH6NOyFux/J7iiyJVy/\nnyXX4aiE2kFQ3C3LsUgJn2c5sOOZWbi7UOkl0pMCgYEAi4nNbfzTGEskCecsA+A3\n6liaILCw1lqTEZ5XdN9vTDpaOJrvYMjlt6HWKVbEeTo1zlpW7guSVnP4eZ+S7ah6\nuQXO6D7zVupiOGToGHKG5OeTAoWJHiGG0Q7gMpzR3NAFax/b1Ym2+tlkCkYdS2bt\nhARLQ9nKeVM640mycjF+MjE=\n-----END PRIVATE KEY-----\n",
    "client_email": "lomejo-analytics@lomejo-225314.iam.gserviceaccount.com",
    "client_id": "109834679129871925583",
    "auth_uri": "https://accounts.google.com/o/oauth2/auth",
    "token_uri": "https://oauth2.googleapis.com/token",
    "auth_provider_x509_cert_url": "https://www.googleapis.com/oauth2/v1/certs",
    "client_x509_cert_url": "https://www.googleapis.com/robot/v1/metadata/x509/lomejo-analytics%40lomejo-225314.iam.gserviceaccount.com"
}